tidyverse_basics
…
glass_data <- read_csv(glass_data_url, col_names = FALSE) %>%
  set_names(glass_col_names)

Rows: 214 Columns: 11
── Column specification ────────────────────────────────────────────────────────
Delimiter: ","
dbl (11): X1, X2, X3, X4, X5, X6, X7, X8, X9, X10, X11

ℹ Use `spec()` to retrieve the full column specification for this data.
ℹ Specify the column types or set `show_col_types = FALSE` to quiet this message.

# Print out the tibble
glass_data

# A tibble: 214 × 11
      Id    RI    Na    Mg    Al    Si     K    Ca    Ba    Fe Type_of_glass
   <dbl> <dbl> <dbl> <dbl> <dbl> <dbl> <dbl> <dbl> <dbl> <dbl>         <dbl>
 1     1  1.52  13.6  4.49  1.1   71.8  0.06  8.75     0  0                1
 2     2  1.52  13.9  3.6   1.36  72.7  0.48  7.83     0  0                1
 3     3  1.52  13.5  3.55  1.54  73.0  0.39  7.78     0  0                1
 4     4  1.52  13.2  3.69  1.29  72.6  0.57  8.22     0  0                1
 5     5  1.52  13.3  3.62  1.24  73.1  0.55  8.07     0  0                1
 6     6  1.52  12.8  3.61  1.62  73.0  0.64  8.07     0  0.26             1
 7     7  1.52  13.3  3.6   1.14  73.1  0.58  8.17     0  0                1
 8     8  1.52  13.2  3.61  1.05  73.2  0.57  8.24     0  0                1
 9     9  1.52  14.0  3.58  1.37  72.1  0.56  8.3      0  0                1
10    10  1.52  13    3.6   1.36  73.0  0.57  8.4      0  0.11             1
# ℹ 204 more rows
…
# Print out the processed tibble
glass_data_processed

# A tibble: 38 × 11
      Id    RI    Na    Mg    Al    Si     K    Ca    Ba    Fe Type_of_glass
   <dbl> <dbl> <dbl> <dbl> <dbl> <dbl> <dbl> <dbl> <dbl> <dbl> <chr>        
 1   177  1.52  14    2.39  1.56  72.4  0     9.57  0        0 tableware    
 2   178  1.52  13.8  2.41  1.19  72.8  0     9.77  0        0 tableware    
 3   179  1.52  14.5  2.24  1.62  72.4  0     9.26  0        0 tableware    
 4   180  1.52  14.1  2.19  1.66  72.7  0     9.32  0        0 tableware    
 5   181  1.51  14.4  1.74  1.54  74.6  0     7.59  0        0 tableware    
 6   182  1.52  15.0  0.78  1.74  72.5  0     9.95  0        0 tableware    
 7   183  1.52  14.2  0     2.09  72.7  0    10.9   0        0 tableware    
 8   184  1.52  14.6  0     0.56  73.5  0    11.2   0        0 tableware    
 9   185  1.51  17.4  0     0.34  75.4  0     6.65  0        0 tableware    
10   186  1.51  13.7  3.2   1.81  72.8  1.76  5.43  1.19     0 headlamp     
# ℹ 28 more rows
…
Rows: 1484 Columns: 10
── Column specification ────────────────────────────────────────────────────────
Delimiter: "  "
chr (2): X1, X10
dbl (8): X2, X3, X4, X5, X6, X7, X8, X9

ℹ Use `spec()` to retrieve the full column specification for this data.
ℹ Specify the column types or set `show_col_types = FALSE` to quiet this message.

# Print out the tibble
print(yeast_data)

# A tibble: 1,484 × 10
   seq_name     mcg   gvh   alm   mit   erl   pox   vac   nuc class
   <chr>      <dbl> <dbl> <dbl> <dbl> <dbl> <dbl> <dbl> <dbl> <chr>
 1 ADT1_YEAST  0.58  0.61  0.47  0.13   0.5   0    0.48  0.22 MIT  
 2 ADT2_YEAST  0.43  0.67  0.48  0.27   0.5   0    0.53  0.22 MIT  
 3 ADT3_YEAST  0.64  0.62  0.49  0.15   0.5   0    0.53  0.22 MIT  
 4 AAR2_YEAST  0.58  0.44  0.57  0.13   0.5   0    0.54  0.22 NUC  
 5 AATM_YEAST  0.42  0.44  0.48  0.54   0.5   0    0.48  0.22 MIT  
 6 AATC_YEAST  0.51  0.4   0.56  0.17   0.5   0.5  0.49  0.22 CYT  
 7 ABC1_YEAST  0.5   0.54  0.48  0.65   0.5   0    0.53  0.22 MIT  
 8 BAF1_YEAST  0.48  0.45  0.59  0.2    0.5   0    0.58  0.34 NUC  
 9 ABF2_YEAST  0.55  0.5   0.66  0.36   0.5   0    0.49  0.22 MIT  
10 ABP1_YEAST  0.4   0.39  0.6   0.15   0.5   0    0.58  0.3  CYT  
# ℹ 1,474 more rows

# Process the data by removing seq_name and nuc columns and adding mean and median columns for each class
yeast_data_processed <- yeast_data %>%
  select(-seq_name, -nuc) %>%
  group_by(class) %>%
  summarise(across(c(mcg:vac), list(mean = ~mean(.x, na.rm = TRUE), median = ~median(.x, na.rm = TRUE)), .names = "{.fn}_{col}"))

# Print out the processed tibble
print(yeast_data_processed)

# A tibble: 44 × 15
   class    mean_mcg median_mcg mean_gvh median_gvh mean_alm median_alm mean_mit
   <chr>       <dbl>      <dbl>    <dbl>      <dbl>    <dbl>      <dbl>    <dbl>
 1 0.22  C…      NaN         NA    0.496      0.505    0.500      0.47     0.536
 2 0.22  E…      NaN         NA    0.7        0.7      0.84       0.84     0.49 
 3 0.22  M…      NaN         NA    0.79       0.79     0.57       0.57     0.41 
 4 0.22  M…      NaN         NA    0.41       0.41     0.53       0.53     0.465
 5 0.22  M…      NaN         NA    0.536      0.52     0.572      0.56     0.472
 6 0.22  N…      NaN         NA    0.42       0.42     0.31       0.31     0.5  
 7 0.22  P…      NaN         NA    0.46       0.46     0.37       0.37     0.48 
 8 0.25  M…      NaN         NA    0.47       0.47     0.41       0.41     0.53 
 9 0.25  N…      NaN         NA    0.4        0.4      0.335      0.335    0.595
10 0.26  C…      NaN         NA    0.5        0.5      0.46       0.46     0.52 
# ℹ 34 more rows
# ℹ 7 more variables: median_mit <dbl>, mean_erl <dbl>, median_erl <dbl>,
#   mean_pox <dbl>, median_pox <dbl>, mean_vac <dbl>, median_vac <dbl>

** Task 2: Combining Excel and Delimited Data**

library(tidyverse)
library(readxl)

# Step 1: Import the white wine data from the first sheet
white_wine_path <- "./white-wine.xlsx"
white_wine <- read_excel(white_wine_path, sheet = 1)

# Print out the tibble
print(white_wine)

# A tibble: 4,898 × 12
   `fixed acidity` `volatile acidity` `citric acid` `residual sugar` chlorides
             <dbl>              <dbl>         <dbl>            <dbl>     <dbl>
 1               7               0.27          0.36             20.7     0.045
 2              63               0.3           0.34              1.6     0.049
 3              81               0.28          0.4               6.9     0.05 
 4              72               0.23          0.32              8.5     0.058
 5              72               0.23          0.32              8.5     0.058
 6              81               0.28          0.4               6.9     0.05 
 7              62               0.32          0.16              7       0.045
 8               7               0.27          0.36             20.7     0.045
 9              63               0.3           0.34              1.6     0.049
10              81               0.22          0.43              1.5     0.044
# ℹ 4,888 more rows
# ℹ 7 more variables: `free sulfur dioxide` <dbl>,
#   `total sulfur dioxide` <dbl>, density <dbl>, pH <dbl>, sulphates <dbl>,
#   alcohol <dbl>, quality <dbl>
…
# Step 8: Select only the variables that contain acid, the alcohol variable, the type variable, and the quality variable
selected_wine <- sorted_wine %>%
  select(contains("acid"), alcohol, type, quality)

# Step 9: Add the mean and standard deviation of the alcohol variable to the data set for each setting of the quality variable
final_wine <- selected_wine %>%
  group_by(quality) %>%
  mutate(mean_alcohol = mean(alcohol, na.rm = TRUE),
         sd_alcohol = sd(alcohol, na.rm = TRUE))

# Print out the final tibble
print(final_wine)

# A tibble: 1,206 × 8
# Groups:   quality [3]
   fixed_acidity volatile_acidity citric_acid alcohol type  quality mean_alcohol
           <dbl>            <dbl>       <dbl>   <dbl> <chr>   <dbl>        <dbl>
 1            91             0.27        0.45     104 white       9        122. 
 2            66             0.36        0.29     124 white       9        122. 
 3            74             0.24        0.36     125 white       9        122. 
 4            69             0.36        0.34     127 white       9        122. 
 5            71             0.26        0.49     129 white       9        122. 
 6            62             0.66        0.48     128 white       8         94.1
 7            62             0.66        0.48     128 white       8         94.1
 8            68             0.26        0.42     105 white       8         94.1
 9            67             0.23        0.31     107 white       8         94.1
10            67             0.23        0.31     107 white       8         94.1
# ℹ 1,196 more rows
# ℹ 1 more variable: sd_alcohol <dbl>
